 {

 "applications":
 
  [
      {
          "versionId": "5b0db7e836a2fc10b201e688",
          "domain": "dev-authentications-api",
          "fullDomain": "dev-authentications-api.cloudhub.io",
          "properties": {
              "anypoint.platform.client_id": "12a5dc36904a40ce8dd0a32332f18318",
              "anypoint.platform.client_secret": "754Ddfc1Fe3243eb96B5d3015F159b66",
              "mule.env": "dev"
          },
          
          "propertiesOptions": {},
          "status": "STARTED",
          "workers": {
              "type": {
                  "name": "Micro",
                  "weight": 0.1,
                  "cpu": "0.1 vCores",
                  "memory": "500 MB memory"
              },
              "amount": 1,
              "remainingOrgWorkers": 0.4,
              "totalOrgWorkers": 0.9
          },
          "lastUpdateTime": 1532105769312,
          "fileName": "authentications-api-1.2.1.zip",
          "muleVersion": {
              "version": "3.9.0",
              "updateId": "5b27fad90cc0a810cfa12c46",
              "endOfSupportDate": 1570604400000
          },
          "previousMuleVersion": {
              "version": "3.9.0",
              "updateId": "5b033eb86e61c210c4cf9768",
              "endOfSupportDate": 1570604400000
          },
          "region": "us-east-1",
          "persistentQueues": false,
          "persistentQueuesEncryptionEnabled": true,
          "persistentQueuesEncrypted": false,
          "monitoringEnabled": true,
          "monitoringAutoRestart": true,
          "staticIPsEnabled": false,
          "hasFile": true,
          "secureDataGatewayEnabled": false,
          "loggingNgEnabled": true,
          "loggingCustomLog4JEnabled": false,
          "insightsReplayDataRegion": "us-east-1",
          "deploymentGroup": {
              "id": "5ac685b0de9e5022ac802744",
              "name": "US East (N. Virginia)"
          },
          "updateRuntimeConfig": false,
          "trackingSettings": {
              "trackingLevel": "DISABLED"
          },
          "logLevels": [
              {
                  "packageName": "org.mule.module.http.internal.HttpMessageLogger",
                  "level": "DEBUG"
              }
          ],
          "ipAddresses": []
      }]
 }