{
  "roleGroups":[
    {
        "organization" : {
          "org_id": "402c707c-9264-4c98-868f-2274bfcd0e08",
          "name": "Gerdau",
          "roleGroups": [
            {
              "role_group_id": "f430a57c-d6d6-4b8b-a73f-6e14ff4b85b3",
              "name": "Cloudhub Administrators",
              "external_names": [],
              "description": "Cloudhub Administrators Users",
              "org_id": "402c707c-9264-4c98-868f-2274bfcd0e08",
              "editable": true,
              "created_at": "2017-03-16T16:57:40.014Z",
              "updated_at": "2017-12-11T17:33:07.474Z",
              "user_count": 10,
              "roles": [
                {
                    "created_at": "2018-07-10T21:38:05.463Z",
                    "role_group_assignment_id": "7a5440cf-0daf-4983-9d7a-9df7814381ec",
                    "role_group_id": "f430a57c-d6d6-4b8b-a73f-6e14ff4b85b3",
                    "role_id": "8f77b09c-5376-4bfd-9e9d-5dfc1b6f7d3e",
                    "org_id": "402c707c-9264-4c98-868f-2274bfcd0e08",
                    "name": "Anypoint Monitoring User",
                    "description": "Role for Anypoint Monitoring User",
                    "internal": false,
                    "context_params": {}
                },
                {
              "users": [
                {
                    "id": "eb5ccd77-6543-654-gfd-kjhgfdsadfghju",
                    "username": "exemplo_name",
                    "firstName": "exemplo",
                    "lastName": "name",
                    "email": "exemplo.name@email.com.br",
                    "organizationId": "402c707c-9264-4c98-868f-2274bfcd0e08",
                    "enabled": true,
                    "type": "host",
                    "context_params": {}
                }
              ]
            }
            
          ]
        }
      ]
   }
  }

  ]
}